dplyr tutorial: manupulate data frames
…
Which slice function would you use ? Which parameters (do not forget the help page or the web) ? You need to combine functions that we have seen in the previous section.

Code

clinical_data %>% filter(treatment_group == "Drug A") %>% 
  select(heart_rate, gender, diagnosis) %>% 
  slice_head(n=10)

ii) Display the bottom 5% rows of the data frame and the column from gender to treatment_group

# A tibble: 500 × 12
   gender smoking_status height weight blood_pressure_systolic
   <chr>  <chr>           <dbl>  <dbl>                   <dbl>
 1 Male   Non-Smoker       158.   59.3                    129.
 2 Male   Non-Smoker       162.   64.3                    115.
 3 Male   Smoker           166.   42.4                    135.
 4 Male   Non-Smoker       167.   75.9                    106.
 5 Male   Smoker           167.   66.6                    123.
 6 Male   Smoker           185.   57.7                    155.
 7 Female Non-Smoker       155.   58.6                    117.
 8 Female Non-Smoker       162.   63.6                    118.
 9 Male   Non-Smoker       170.   79.4                    123.
10 Male   Non-Smoker       179.   82.8                    147.
# ℹ 490 more rows
# ℹ 7 more variables: blood_pressure_diastolic <dbl>, cholesterol <dbl>,
#   glucose <dbl>, heart_rate <dbl>, hospital_visits_last_year <dbl>,
#   diagnosis <chr>, treatment_group <chr>
…
Modify or create a column in your data frame with mutate()

Create a column named none.diag containing a TRUE if the column diagnosis contains No Disease and FALSE otherwise and display the 10 rows containing the lowest heart rate values and the columns patient_id, diagnosis , heart_rate and the new column none.diag.

# A tibble: 24 × 4
   patient_id diagnosis    heart_rate none.diag
        <dbl> <chr>             <dbl> <lgl>    
 1        973 Diabetes             40 FALSE    
 2       1074 Diabetes             40 FALSE    
 3       1768 Hypertension         40 FALSE    
 4       1925 No Disease           40 TRUE     
 5       2447 Diabetes             40 FALSE    
 6       2886 Diabetes             40 FALSE    
 7       3812 No Disease           40 TRUE     
 8       4055 No Disease           40 TRUE     
 9       4758 Hypertension         40 FALSE    
10       4955 Diabetes             40 FALSE    
# ℹ 14 more rows
…
Code

clinical_data %>% 
  mutate(BMI = weight / height) %>%
  slice_head(n=5) %>%
  select(patient_id, BMI)

Modulate position of columns with relocate()

i) Move the gender column to the first position in the dataset.

# A tibble: 10,000 × 15
   gender patient_id   age smoking_status height weight blood_pressure_systolic
   <chr>       <dbl> <dbl> <chr>           <dbl>  <dbl>                   <dbl>
 1 Male            1  65.0 Smoker           181.   98.8                   123. 
 2 Male            2  58.6 Non-Smoker       163.   53.6                   110. 
 3 Male            3  66.5 Non-Smoker       176.   76.9                   114. 
 4 Male            4  75.2 Non-Smoker       166.   69.7                   111. 
 5 Male            5  57.7 Smoker           161.   70.8                    98.8
 6 Male            6  57.7 Non-Smoker       179.   68.2                   136. 
 7 Male            7  75.8 Non-Smoker       187.   67.5                   122. 
 8 Female          8  67.7 Non-Smoker       161.   67.2                   132. 
 9 Male            9  55.3 Non-Smoker       173.   63.7                   118. 
10 Female         10  65.4 Smoker           176.   42.6                   110. 
# ℹ 9,990 more rows
# ℹ 8 more variables: blood_pressure_diastolic <dbl>, cholesterol <dbl>,
#   glucose <dbl>, heart_rate <dbl>, hospital_visits_last_year <dbl>,
#   diagnosis <chr>, treatment_group <chr>, treatment_response <chr>

Code

clinical_data %>% 
  relocate(gender)

ii) Move the glucose column just after height column.

# A tibble: 10,000 × 15
   patient_id   age gender smoking_status height glucose weight
        <dbl> <dbl> <chr>  <chr>           <dbl>   <dbl>  <dbl>
 1          1  65.0 Male   Smoker           181.    67.1   98.8
 2          2  58.6 Male   Non-Smoker       163.   103.    53.6
 3          3  66.5 Male   Non-Smoker       176.   119.    76.9
 4          4  75.2 Male   Non-Smoker       166.   101.    69.7
 5          5  57.7 Male   Smoker           161.    89.8   70.8
 6          6  57.7 Male   Non-Smoker       179.   195.    68.2
 7          7  75.8 Male   Non-Smoker       187.   129.    67.5
 8          8  67.7 Female Non-Smoker       161.   202.    67.2
 9          9  55.3 Male   Non-Smoker       173.   107.    63.7
10         10  65.4 Female Smoker           176.   166.    42.6
# ℹ 9,990 more rows
# ℹ 8 more variables: blood_pressure_systolic <dbl>,
#   blood_pressure_diastolic <dbl>, cholesterol <dbl>, heart_rate <dbl>,
#   hospital_visits_last_year <dbl>, diagnosis <chr>, treatment_group <chr>,
#   treatment_response <chr>
…
