…
*dplyr* is a powerful package for data manipulation. It provides set of functions that can help to simplify complex data operations.

For the following examples, we will take a built-in dataset in R.
The dataset is named "storms" and it is contained in the *dplyr* package.

```{r storms dataset}
storms <- storms
storms
```
<details>
  <summary>storms dataset structure</summary>

```
# A tibble: 19,537 × 13
   name   year month   day  hour   lat  long status              category  wind pressure tropicalstorm_force_diameter hurricane_force_diameter
   <chr> <dbl> <dbl> <int> <dbl> <dbl> <dbl> <fct>                  <dbl> <int>    <int>                        <int>                    <int>
 1 Amy    1975     6    27     0  27.5 -79   tropical depression       NA    25     1013                           NA                       NA
 2 Amy    1975     6    27     6  28.5 -79   tropical depression       NA    25     1013                           NA                       NA
 3 Amy    1975     6    27    12  29.5 -79   tropical depression       NA    25     1013                           NA                       NA
 4 Amy    1975     6    27    18  30.5 -79   tropical depression       NA    25     1013                           NA                       NA
 5 Amy    1975     6    28     0  31.5 -78.8 tropical depression       NA    25     1012                           NA                       NA
 6 Amy    1975     6    28     6  32.4 -78.7 tropical depression       NA    25     1012                           NA                       NA
 7 Amy    1975     6    28    12  33.3 -78   tropical depression       NA    25     1011                           NA                       NA
 8 Amy    1975     6    28    18  34   -77   tropical depression       NA    30     1006                           NA                       NA
 9 Amy    1975     6    29     0  34.4 -75.8 tropical storm            NA    35     1004                           NA                       NA
10 Amy    1975     6    29     6  34   -74.8 tropical storm            NA    40     1002                           NA                       NA
# ℹ 19,527 more rows
# ℹ Use `print(n = ...)` to see more rows
```
…
```{r filter help}
?dplyr::filter
```

Example : Extract every storm that occurred in 2000

```{r filter example}
storms %>% 
  filter(year == 2000)
```
<details>
  <summary>filter by year 2000</summary>

```
# A tibble: 449 × 13
   name      year month   day  hour   lat  long status              category  wind pressure tropicalstorm_force_diameter hurricane_force_diameter
   <chr>    <dbl> <dbl> <int> <dbl> <dbl> <dbl> <fct>                  <dbl> <int>    <int>                        <int>                    <int>
 1 AL012000  2000     6     7    18  21   -93   tropical depression       NA    25     1008                           NA                       NA
 2 AL012000  2000     6     8     0  20.9 -92.8 tropical depression       NA    25     1009                           NA                       NA
 3 AL012000  2000     6     8     6  20.7 -93.1 tropical depression       NA    25     1010                           NA                       NA
 4 AL012000  2000     6     8    12  20.8 -93.5 tropical depression       NA    25     1010                           NA                       NA
 5 AL022000  2000     6    23     0   9.5 -19.8 tropical depression       NA    25     1010                           NA                       NA
 6 AL022000  2000     6    23     6   9.6 -21   tropical depression       NA    30     1009                           NA                       NA
 7 AL022000  2000     6    23    12   9.9 -22.6 tropical depression       NA    30     1009                           NA                       NA
 8 AL022000  2000     6    23    18  10.2 -24.5 tropical depression       NA    30     1009                           NA                       NA
 9 AL022000  2000     6    24     0  10.1 -26.2 tropical depression       NA    30     1009                           NA                       NA
10 AL022000  2000     6    24     6   9.9 -27.8 tropical depression       NA    30     1009                           NA                       NA
# ℹ 439 more rows
# ℹ Use `print(n = ...)` to see more rows
```
…
```{r select help}
?dplyr::select
```

Example : Extract name of storms and their status

```{r select example}
storms %>% 
  select(name, status)
```
<details>
  <summary>select name and status</summary>

```
# A tibble: 19,537 × 2
   name  status             
   <chr> <fct>              
 1 Amy   tropical depression
 2 Amy   tropical depression
 3 Amy   tropical depression
 4 Amy   tropical depression
 5 Amy   tropical depression
 6 Amy   tropical depression
 7 Amy   tropical depression
 8 Amy   tropical depression
 9 Amy   tropical storm     
10 Amy   tropical storm     
# ℹ 19,527 more rows
# ℹ Use `print(n = ...)` to see more rows
```
…
