dplyr tutorial: manupulate data frames
…
Which slice function would you use ? Which parameters (do not forget the help page or the web) ? You need to combine functions that we have seen in the previous section.

Code

clinical_data %>% filter(treatment_group == "Drug A") %>% 
  select(heart_rate, gender, diagnosis) %>% 
  slice_head(n=10)

ii) Display the bottom 5% rows of the data frame and the column from gender to treatment_group

# A tibble: 500 × 10
   gender weight height blood_pressure_systolic blood_pressure_diastolic
   <chr>   <dbl>  <dbl>                   <dbl>                    <dbl>
 1 Female     62   1.58                     131                       76
 2 Female     94   1.84                     106                       89
 3 Male       68   1.52                     125                       70
 4 Male       80   1.85                     105                       70
 5 Female     68   1.63                     133                       86
 6 Female     61   1.6                      138                       87
 7 Male       55   1.82                     108                       79
 8 Male       58   1.64                     119                       71
 9 Female     58   1.61                     152                       86
10 Female     91   1.8                      124                       98
# ℹ 490 more rows
# ℹ 5 more variables: cholesterol <dbl>, glucose <dbl>, heart_rate <dbl>,
#   smoking_status <chr>, treatment_group <chr>
…
You need to combine the mutate() function with functions enabling the select rows and columns.

Modulate position of columns with relocate()

i) Move the gender column to the first position in the dataset.

# A tibble: 10,000 × 15
   gender patient_id   age weight height blood_pressure_systolic
   <chr>       <dbl> <dbl>  <dbl>  <dbl>                   <dbl>
 1 Female          1    50     86   1.8                       98
 2 Male            2    70     88   1.77                     125
 3 Male            3    33     89   1.82                     119
 4 Male            4    86     58   1.88                     119
 5 Female          5    61     75   1.55                     135
 6 Female          6    69     88   1.78                     128
 7 Male            7    62     86   1.79                     154
 8 Male            8    33     61   1.57                     125
 9 Male            9    44     93   1.77                     123
10 Male           10    88     84   1.86                     130
# ℹ 9,990 more rows
# ℹ 9 more variables: blood_pressure_diastolic <dbl>, cholesterol <dbl>,
#   glucose <dbl>, heart_rate <dbl>, smoking_status <chr>,
#   treatment_group <chr>, treatment_response <chr>,
#   hospital_visits_last_year <dbl>, diagnosis <chr>

Code

clinical_data %>% 
  relocate(gender)

ii) Move the glucose column just after height column.

# A tibble: 10,000 × 15
   patient_id   age gender weight height glucose blood_pressure_systolic
        <dbl> <dbl> <chr>   <dbl>  <dbl>   <dbl>                   <dbl>
 1          1    50 Female     86   1.8      112                      98
 2          2    70 Male       88   1.77      79                     125
 3          3    33 Male       89   1.82     126                     119
 4          4    86 Male       58   1.88     120                     119
 5          5    61 Female     75   1.55      98                     135
 6          6    69 Female     88   1.78     125                     128
 7          7    62 Male       86   1.79      98                     154
 8          8    33 Male       61   1.57      54                     125
 9          9    44 Male       93   1.77     122                     123
10         10    88 Male       84   1.86      99                     130
# ℹ 9,990 more rows
# ℹ 8 more variables: blood_pressure_diastolic <dbl>, cholesterol <dbl>,
#   heart_rate <dbl>, smoking_status <chr>, treatment_group <chr>,
#   treatment_response <chr>, hospital_visits_last_year <dbl>, diagnosis <chr>
…
